{
  "project_info": {
    "project_number": "1089298071460",
    "project_id": "todoflutter-8d8af",
    "storage_bucket": "todoflutter-8d8af.appspot.com"
  },
  "client": [
    {
      "client_info": {
        "mobilesdk_app_id": "1:1089298071460:android:f83dd9918efa35b1e7cb31",
        "android_client_info": {
          "package_name": "com.example.flutter_application_1"
        }
      },
      "oauth_client": [
        {
          "client_id": "1089298071460-eorvuahr0qstlnl40ffb5464hbvja1nm.apps.googleusercontent.com",
          "client_type": 3
        }
      ],
      "api_key": [
        {
          "current_key": "AIzaSyBQusG0qNFCdD23f9om0y6bkWMLzXXn3j8"
        }
      ],
      "services": {
        "appinvite_service": {
          "other_platform_oauth_client": [
            {
              "client_id": "1089298071460-eorvuahr0qstlnl40ffb5464hbvja1nm.apps.googleusercontent.com",
              "client_type": 3
            },
            {
              "client_id": "1089298071460-200c674paaf38ico9mlt2a5iq96n9vgq.apps.googleusercontent.com",
              "client_type": 2,
              "ios_info": {
                "bundle_id": "com.example.myapp"
              }
            }
          ]
        }
      }
    }
  ],
  "configuration_version": "1"
}